%YAML 1.1
%TAG !u! tag:unity3d.com,2011:
--- !u!114 &11400000
MonoBehaviour:
  m_ObjectHideFlags: 0
  m_CorrespondingSourceObject: {fileID: 0}
  m_PrefabInternal: {fileID: 0}
  m_GameObject: {fileID: 0}
  m_Enabled: 1
  m_EditorHideFlags: 0
  m_Script: {fileID: 11500000, guid: ae0543fe805424df99fe08ce744cbe49, type: 3}
  m_Name: Bind
  m_EditorClassIdentifier: 
  m_PoseEntries:
  - path: bones/hip
    localPosition: {x: 2.6301541, y: -0.21735162, z: 0}
    localRotation: {x: 0, y: 0, z: -0.77137893, w: -0.6363762}
    localScale: {x: 1, y: 1, z: 1}
  - path: bones/hip/torso
    localPosition: {x: 0.2363213, y: -0.000000029802322, z: 0}
    localRotation: {x: 0, y: 0, z: 0.10557345, w: -0.9944115}
    localScale: {x: 1, y: 1, z: 1}
  - path: bones/hip/torso/head
    localPosition: {x: 0.31471276, y: -0.000000025029294, z: 0}
    localRotation: {x: 0, y: 0, z: -0.042249605, w: 0.9991071}
    localScale: {x: 1, y: 1, z: 1}
  - path: bones/hip/torso/right_upper_arm
    localPosition: {x: 0.39632028, y: 0.4429586, z: 0}
    localRotation: {x: 0, y: 0, z: 0.9704096, w: 0.24146487}
    localScale: {x: 1, y: 1, z: 1}
  - path: bones/hip/torso/right_upper_arm/right_lower_arm
    localPosition: {x: 0.44562772, y: 0, z: 0}
    localRotation: {x: 0, y: 0, z: 0.35603368, w: 0.9344731}
    localScale: {x: 1, y: 1, z: 1}
  - path: bones/hip/torso/left_upper_arm
    localPosition: {x: 0.47580022, y: -0.49236846, z: 0}
    localRotation: {x: 0, y: 0, z: -0.9970687, w: 0.07651159}
    localScale: {x: 1, y: 1, z: 1}
  - path: bones/hip/torso/left_upper_arm/left_lower_arm
    localPosition: {x: 0.48721808, y: -0.000000014901161, z: 0}
    localRotation: {x: 0, y: 0, z: 0.19128531, w: 0.9815345}
    localScale: {x: 1, y: 1, z: 1}
  - path: bones/hip/right_upper_leg
    localPosition: {x: -0.004827885, y: 0.26817304, z: 0}
    localRotation: {x: 0, y: 0, z: 0.9891268, w: 0.14706525}
    localScale: {x: 1, y: 1, z: 1}
  - path: bones/hip/right_upper_leg/right_lower_leg
    localPosition: {x: 0.55000025, y: -0.0000005289912, z: 0}
    localRotation: {x: 0, y: 0, z: 0, w: 1}
    localScale: {x: 1, y: 1, z: 1}
  - path: bones/hip/right_upper_leg/right_lower_leg/right_foot
    localPosition: {x: 0.50070995, y: 0.000003091991, z: 0}
    localRotation: {x: -0, y: -0, z: 0.7428997, w: 0.6694027}
    localScale: {x: 1, y: 1, z: 1}
  - path: bones/hip/left_upper_leg
    localPosition: {x: -0.10624167, y: -0.25629672, z: 0}
    localRotation: {x: 0, y: 0, z: 0.99223036, w: 0.124414474}
    localScale: {x: 1, y: 1, z: 1}
  - path: bones/hip/left_upper_leg/left_lower_leg
    localPosition: {x: 0.45625573, y: 0.0000001937151, z: 0}
    localRotation: {x: 0, y: 0, z: 0, w: 1}
    localScale: {x: 1, y: 1, z: 1}
  - path: bones/hip/left_upper_leg/left_lower_leg/left_foot
    localPosition: {x: 0.6579273, y: 0.000000123051, z: 0}
    localRotation: {x: 0.017301084, y: -0.01632136, z: 0.7271967, w: 0.686017}
    localScale: {x: 1, y: 1, z: 1}
